DROPOUT: 0, LSTM, NO_MASK
Model: "model_1"
_________________________________________________________________
Layer (type)                 Output Shape              Param #   
=================================================================
input_1 (InputLayer)         (None, 512)               0         
_________________________________________________________________
embedding_1 (Embedding)      (None, 512, 128)          2560000   
_________________________________________________________________
lstm_1 (LSTM)                (None, 512, 192)          246528    
_________________________________________________________________
global_max_pooling1d_1 (Glob (None, 192)               0         
_________________________________________________________________
dense_1 (Dense)              (None, 1)                 193       
=================================================================
Total params: 2,806,721
Trainable params: 2,806,721
Non-trainable params: 0

Train on 3608 samples, validate on 401 samples
Epoch 1/3
3608/3608 [==============================] - 57s 16ms/step - loss: 0.9956 - mean_absolute_error: 0.8397 - val_loss: 0.9522 - val_mean_absolute_error: 0.8327
Epoch 2/3
3608/3608 [==============================] - 56s 16ms/step - loss: 0.8274 - mean_absolute_error: 0.7558 - val_loss: 0.7598 - val_mean_absolute_error: 0.7230
Epoch 3/3
3608/3608 [==============================] - 56s 16ms/step - loss: 0.5622 - mean_absolute_error: 0.5975 - val_loss: 0.8082 - val_mean_absolute_error: 0.7287

1003/1003 [==============================] - 12s 11ms/step
loss: 0.8024303962440339
mae: 0.7323779622436402
[0.8024303962440339, 0.7323779622436402]

True	Predict
0	2000.0	2131.978760
1	800.0	1851.844849
2	1300.0	1226.938721
3	2200.0	2223.425781
4	2300.0	1505.612549




DROPOUT: 0.2, LSTM, NO_MASK
Model: "model_5"
_________________________________________________________________
Layer (type)                 Output Shape              Param #   
=================================================================
input_2 (InputLayer)         (None, 512)               0         
_________________________________________________________________
embedding_5 (Embedding)      (None, 512, 128)          2560000   
_________________________________________________________________
lstm_5 (LSTM)                (None, 512, 85)           72760     
_________________________________________________________________
global_max_pooling1d_3 (Glob (None, 85)                0         
_________________________________________________________________
dense_5 (Dense)              (None, 1)                 86        
=================================================================
Total params: 2,632,846
Trainable params: 2,632,846
Non-trainable params: 0
_________________________________________________________________

Train on 3608 samples, validate on 401 samples
Epoch 1/3
3608/3608 [==============================] - 67s 19ms/step - loss: 0.9787 - mean_absolute_error: 0.8362 - val_loss: 0.9362 - val_mean_absolute_error: 0.8249
Epoch 2/3
3608/3608 [==============================] - 65s 18ms/step - loss: 0.8279 - mean_absolute_error: 0.7617 - val_loss: 0.7691 - val_mean_absolute_error: 0.7125
Epoch 3/3
3608/3608 [==============================] - 65s 18ms/step - loss: 0.5991 - mean_absolute_error: 0.6196 - val_loss: 0.8021 - val_mean_absolute_error: 0.7270

1003/1003 [==============================] - 13s 13ms/step
loss: 0.7897108438483263
mae: 0.7357195568821604
[0.7897108438483263, 0.7357195568821604]

	True	Predict
0	2000.0	1986.122192
1	800.0	1756.721313
2	1300.0	1334.105103
3	2200.0	1950.135986
4	2300.0	1597.798340



DROPOUT: 0.2, LSTM, MASK
Model: "model_4"
_________________________________________________________________
Layer (type)                 Output Shape              Param #   
=================================================================
input_2 (InputLayer)         (None, 512)               0         
_________________________________________________________________
embedding_4 (Embedding)      (None, 512, 128)          2560000   
_________________________________________________________________
lstm_4 (LSTM)                (None, 512, 85)           72760     
_________________________________________________________________
masked_global_max_pool1d_2 ( (None, 85)                0         
_________________________________________________________________
dense_4 (Dense)              (None, 1)                 86        
=================================================================
Total params: 2,632,846
Trainable params: 2,632,846
Non-trainable params: 0
_________________________________________________________________

Train on 3608 samples, validate on 401 samples
Epoch 1/3
3608/3608 [==============================] - 98s 27ms/step - loss: 0.9812 - mean_absolute_error: 0.8380 - val_loss: 0.9457 - val_mean_absolute_error: 0.8260
Epoch 2/3
3608/3608 [==============================] - 96s 27ms/step - loss: 0.8311 - mean_absolute_error: 0.7590 - val_loss: 0.7593 - val_mean_absolute_error: 0.7243
Epoch 3/3
3608/3608 [==============================] - 96s 27ms/step - loss: 0.6078 - mean_absolute_error: 0.6250 - val_loss: 0.8175 - val_mean_absolute_error: 0.7278

1003/1003 [==============================] - 17s 17ms/step
loss: 0.8474838404451029
mae: 0.7581374996442976
[0.8474838404451029, 0.7581374996442976]

	True	Predict
0	2000.0	2040.737793
1	800.0	1704.213135
2	1300.0	1386.312012
3	2200.0	2015.875122
4	2300.0	1717.248779



DROPOUT: 0.2, BIDI_LSTM, NO_MASK
Model: "model_2"
_________________________________________________________________
Layer (type)                 Output Shape              Param #   
=================================================================
input_2 (InputLayer)         (None, 512)               0         
_________________________________________________________________
embedding_2 (Embedding)      (None, 512, 128)          2560000   
_________________________________________________________________
bidirectional_1 (Bidirection (None, 512, 170)          145520    
_________________________________________________________________
global_max_pooling1d_2 (Glob (None, 170)               0         
_________________________________________________________________
dense_2 (Dense)              (None, 1)                 171       
=================================================================
Total params: 2,705,691
Trainable params: 2,705,691
Non-trainable params: 0

Train on 3608 samples, validate on 401 samples
Epoch 1/3
3608/3608 [==============================] - 134s 37ms/step - loss: 0.9752 - mean_absolute_error: 0.8353 - val_loss: 0.9143 - val_mean_absolute_error: 0.8145
Epoch 2/3
3608/3608 [==============================] - 132s 37ms/step - loss: 0.8057 - mean_absolute_error: 0.7435 - val_loss: 0.8249 - val_mean_absolute_error: 0.7361
Epoch 3/3
3608/3608 [==============================] - 132s 37ms/step - loss: 0.5754 - mean_absolute_error: 0.6061 - val_loss: 0.8249 - val_mean_absolute_error: 0.7255

1003/1003 [==============================] - 27s 27ms/step
loss: 0.8417746084756176
mae: 0.7410275165366746
[0.8417746084756176, 0.7410275165366746]

	True	Predict
0	2000.0	1882.135254
1	800.0	1595.348999
2	1300.0	1165.697876
3	2200.0	1919.094727
4	2300.0	1808.953247



DROPOUT: 0.2, BIDI_LSTM, MASK
Model: "model_3"
_________________________________________________________________
Layer (type)                 Output Shape              Param #   
=================================================================
input_2 (InputLayer)         (None, 512)               0         
_________________________________________________________________
embedding_3 (Embedding)      (None, 512, 128)          2560000   
_________________________________________________________________
bidirectional_2 (Bidirection (None, 512, 170)          145520    
_________________________________________________________________
masked_global_max_pool1d_1 ( (None, 170)               0         
_________________________________________________________________
dense_3 (Dense)              (None, 1)                 171       
=================================================================
Total params: 2,705,691
Trainable params: 2,705,691
Non-trainable params: 0
_________________________________________________________________

Train on 3608 samples, validate on 401 samples
Epoch 1/3
3608/3608 [==============================] - 186s 52ms/step - loss: 0.9704 - mean_absolute_error: 0.8324 - val_loss: 0.9590 - val_mean_absolute_error: 0.8194
Epoch 2/3
3608/3608 [==============================] - 184s 51ms/step - loss: 0.7885 - mean_absolute_error: 0.7390 - val_loss: 0.7987 - val_mean_absolute_error: 0.7287
Epoch 3/3
3608/3608 [==============================] - 184s 51ms/step - loss: 0.5506 - mean_absolute_error: 0.5891 - val_loss: 0.8581 - val_mean_absolute_error: 0.7352

1003/1003 [==============================] - 33s 33ms/step
loss: 0.8608885736075618
mae: 0.7518701104081402
[0.8608885736075618, 0.7518701104081402]

	True	Predict
0	2000.0	1742.965698
1	800.0	2062.002686
2	1300.0	1364.548462
3	2200.0	2085.845459
4	2300.0	1452.560913



DROPOUT: 0, BIDI_LSTM, ATTENTION, MASK
Model: "model_2"
_________________________________________________________________
Layer (type)                 Output Shape              Param #   
=================================================================
input_1 (InputLayer)         (None, 512)               0         
_________________________________________________________________
embedding_7 (Embedding)      (None, 512, 128)          2560000   
_________________________________________________________________
bidirectional_7 (Bidirection (None, 512, 170)          145520    
_________________________________________________________________
seq_self_attention_7 (SeqSel (None, 512, 170)          10945     
_________________________________________________________________
masked_global_max_pool1d_3 ( (None, 170)               0         
_________________________________________________________________
dense_2 (Dense)              (None, 1)                 171       
=================================================================
Total params: 2,716,636
Trainable params: 2,716,636
Non-trainable params: 0
________________________

Train on 3608 samples, validate on 401 samples
Epoch 1/3
3608/3608 [==============================] - 486s 135ms/step - loss: 0.9328 - mean_absolute_error: 0.8120 - val_loss: 0.8314 - val_mean_absolute_error: 0.7407
Epoch 2/3
3608/3608 [==============================] - 472s 131ms/step - loss: 0.6026 - mean_absolute_error: 0.6222 - val_loss: 0.9044 - val_mean_absolute_error: 0.7609
Epoch 3/3
3608/3608 [==============================] - 473s 131ms/step - loss: 0.3563 - mean_absolute_error: 0.4584 - val_loss: 0.9250 - val_mean_absolute_error: 0.7821

1003/1003 [==============================] - 36s 36ms/step
loss: 0.9233930669539234
mae: 0.7821730593978943
[0.9233930669539234, 0.7821730593978943]

	True	Predict
0	2000.0	1698.265503
1	800.0	2213.612793
2	1300.0	1451.885132
3	2200.0	2164.551270
4	2300.0	1544.517822




DROPOUT: 0.2, BIDI_LSTM, ATTENTION, MASK
Model: "model_3"
_________________________________________________________________
Layer (type)                 Output Shape              Param #   
=================================================================
input_2 (InputLayer)         (None, 512)               0         
_________________________________________________________________
embedding_8 (Embedding)      (None, 512, 128)          2560000   
_________________________________________________________________
bidirectional_8 (Bidirection (None, 512, 204)          188496    
_________________________________________________________________
seq_self_attention_8 (SeqSel (None, 512, 204)          13121     
_________________________________________________________________
masked_global_max_pool1d_4 ( (None, 204)               0         
_________________________________________________________________
dense_3 (Dense)              (None, 1)                 205       
=================================================================
Total params: 2,761,822
Trainable params: 2,761,822
Non-trainable params: 0
_________________________________________________________________

Train on 3608 samples, validate on 401 samples
Epoch 1/3
3608/3608 [==============================] - 494s 137ms/step - loss: 0.9428 - mean_absolute_error: 0.8161 - val_loss: 0.8446 - val_mean_absolute_error: 0.7717
Epoch 2/3
3608/3608 [==============================] - 495s 137ms/step - loss: 0.6607 - mean_absolute_error: 0.6584 - val_loss: 0.8167 - val_mean_absolute_error: 0.7536
Epoch 3/3
3608/3608 [==============================] - 500s 139ms/step - loss: 0.4419 - mean_absolute_error: 0.5215 - val_loss: 0.8610 - val_mean_absolute_error: 0.7581

1003/1003 [==============================] - 38s 37ms/step
loss: 0.9011731566127728
mae: 0.7848843439507223
[0.9011731566127728, 0.7848843439507223]

	True	Predict
0	2000.0	1967.820190
1	800.0	1953.130005
2	1300.0	1220.402832
3	2200.0	2175.351318
4	2300.0	1707.317627
