0021	A=(x1,y1), B=(x2,y2), C=(x3,y3), D=(x4,y4) の異なる４つの座標点が与えられたとき、直線 AB と CD が平行かどうかを判定し、平行である場合には YES、平行でない場合には NO と出力するプログラムを作成して下さい。
0023	中心が (xa,ya) で半径 ra の円 A と、中心が (xb,yb) で半径 rb の円 B が与えられます。B が A の中にあるとき 2、A が B の中にあるとき -2、A と B が共有点をもつとき 1、A と B が重なっていないとき 0 を出力するプログラムを作成して下さい。なお A と B は同じものではないとします。
0035	平面上の異なる 4 点　A(xa,ya), B(xb,yb), C(xc,yc), D(xd,yd) の座標を読み込んで、それら 4 点を頂点とした四角形 ABCD に凹みがなければ YES、凹みがあれば NO と出力するプログラムを作成してください。
0058	平面上の異なる 4 点、A(xA,yA), B(xB,yB), C(xC,yC), D(xD,yD) の座標を読み込んで、直線 AB と CD が直交する場合には YES、直交しない場合には NO と出力するプログラムを作成してください。
0059	底辺が x 軸に対して平行な 2 つの長方形があります。長方形 A の左下の座標 (xa1, ya1) と右上の座標 (xa2, ya2)、長方形 B の左下の座標 (xb1, yb1) と右上の座標 (xb2, yb2) を読み込んで、長方形 A と長方形 B が一部でも重なっていれば YES を、まったく重なっていなければ NO を出力するプログラムを作成してください。
0068	釘の座標を読み込んで、上記のように釘を輪ゴムで囲んだときに輪ゴムに接していない釘の本数を出力するプログラムを作成してください。n 本の釘を平板上の座標 P1 (x1, y1), P2 (x2, y2), P3 (x3, y3),..., Pn (xn, yn) に１本ずつ打ち、輪ゴムの輪の中に全ての釘が入るように 1 本の輪ゴムで囲みます。
0081	平面上の異なる 3 点 P1(x1,y1), P2(x2,y2), Q(xq,yq) の座標の組を読み込んで、点 P1 点P2 を通る直線を対称軸として点 Q と線対称の位置にある点 R(x,y) を出力するプログラムを作成してください。
0115	そこで、UAZ アドバンス号、敵、バリアの位置の宇宙座標(3次元座標 x, y, z) を入力して、ビームがバリアをさけて敵に命中する場合は HIT、バリアに当たってしまう場合MISSと出力するプログラムを作成してください。
0129	公園にある壁の情報(中心の座標 (wx, wy) と 半径 r) とたろう君と鬼の位置情報(たろう君の位置の座標 (tx, ty) と鬼の位置の座標 (sx, sy) ) を入力とし、その位置で鬼からたろう君が見えるか否かを判定するプログラムを作成してください。
0143	3 角形の 3 頂点の位置 (xp1,yp1), (xp2,yp2), (xp3,yp3)、牽牛の位置 (xk,yk)、および織女の位置 (xs,ys)、を入力とし、三角形が牽牛と織女を遮断しているか否かを判定し、遮断できている場合は OK、遮断できていない場合には NG を出力するプログラムを作成してください。
0153	平面上にある三角形と円の位置関係を判定するプログラムを作成してください。対象となる図形はいずれも境界を含むものとします。 三角形は 3 頂点の位置が与えられ、円は中心の位置と半径が与えられます。
0214	イルミネーションの個数、各イルミネーションを構成する四角形の情報を入力とし、イルミネーションごとに必要な電源の個数を出力するプログラムを作成してください。重なっていたり接していたりする四角形を 1 つのまとまりと考え、1 つのまとまりに対して電源の個数は 1 つと数えてください。
0265	お屋敷の塀を表す多角形を入力とし、ごはんを配置する頂点の数の最小値を求めるプログラムを作成して下さい。多角形の頂点にあたる場所だけにごはんを置くことにしました。猫がどの点から入ったとしても、その点から直進していずれかのごはんにたどり着けるように、ごはんを配置することも決めました。
0284	平面上に与えられたN個の点から、ちょうどk個の点を結んでできる凸多角形のうち、最も面積の小さいものを見つけるプログラムを作成してください。ただし、N個の点の座標を与えられた後、質問として凸多角形の角の個数kがいくつか与えられます。
0311	月の地球に対する位置と分単位での時間tが与えられたとき、その位置から始めてt分後までの間に、かぐやが月の裏側に隠れる時間を求めるプログラムを作成してください。月を横切る直線がかぐやの軌道です。かぐやは月の周りを回っているので軌道は円ですが、z軸の正の方向から見ているので、図のx軸に平行な直線に見えます。
0342	集落の位置と元々あった道の情報が与えられる。境界線上に道を置き、かつ、すべての集落が行き来できるようにした場合の、道の長さの合計の最小値を計算するプログラムを作成せよ。村人達はすべての集落の間を行き来できる状態を維持しつつ、境界線上にない道を廃止することで、道の長さの合計を最小にすることにしました。
0356	太陽の半径と各ビルのシルエットの情報が与えられたとき、太陽の面積のちょうど半分が遮られるような、最も高い太陽の高さ（中心の y座標）を求めるプログラムを作成せよ。西の空を、地平線を x 軸、太陽の中心の軌跡を y 軸とするような x-y 平面で表し、太陽を半径 R の円、それぞれのビルのシルエットを長方形とする。
0585	平面上の n 個の点 P1, ..., Pn が与えられたとき， 距離が最小の２点を求めたい．これら n 点の中から最も近い２点を選んだとき， この２点間の距離の２乗を出力せよ．
1023	ある戦闘機の戦闘力は、その戦闘機との距離が 2R 以下であるようなエネルギー弾の個数に等しい。あなたに与えられる情報は、現在投入されている AN 個の戦闘機の座標と、BN 個の敵弾の座標である。それでは、全ての戦闘機の戦闘力の合計を求めるプログラムを書いてほしい。
1033	あなたの仕事は、床にあるワイヤーの位置、スタート地点、ゴール地点を読み込み、スタート地点からゴール地点へ移動するために必要な回転角度の合計の最小値を報告するプログラムを作成することである。ロボットは常に現在いるワイヤーに平行な方向を向いて前進する。
1050	闇の荒野を抜ける最短距離を求めるプログラムを作成せよ。x 座標が 0.0 であり y 座標が 0.0 以上 4.0 以下である点から出発し、x 座標が 4.0 であり y 座標が 0.0 以上 4.0 以下である点へ移動しなければならない。
1067	あなたの仕事は二匹の要求を満たすような切り方をしたときに、ベーコの取り分になるアーモンドの数を最小にすることである。シータの要求は、チョコレートが連続した1つのピースであることである。ベーコの要求はチョコレートの面積を S 以上にすることである。
1093	各甘味処への最悪の移動時間が最小になる場所を探す事になった。目的の甘味処へのモチベーションの違いにより、単位時間あたりの移動距離が変化する。
1132	最大でいくつの点を同時に囲めるかを答えなさい．xy平面上にN個の点が与えられる．半径1の円をxy平面 上で動かして，それらの点をなるべくたくさん囲むようにする．
1136	xy平面上に複数の折れ線がある． 別に与えられた1本の折れ線と同じ形状のも のをすべて，これらの折れ線の中から見つけ出したい．xy平面内で回転および平行移動によって(拡大縮小や裏返しをせずに)重なり合う形状のみを同じ形状とみなす．
1157	条件を満たすような転がし方が可能な大玉の半径の最大値を求めるプログラムを作成しなさい．ブロックに大玉がぶつからないように， かつ大玉の底の点がコースの線から離れないように転がさなければならない．
1183	平面上の複数の円環から構成される鎖がある．あなたの仕事は，以下の条件を満たす最短経路を見つけることである．経路は鎖中にある．すなわち，経路上のすべての点は，少なくとも一つの円の内側もしくは円周上にある．
1190	あなたの仕事は，風船がロープの接続を維持したまま， どこまで高く飛ぶことができるか答えることである．地面上に風船があり，地面上の１つ以上の杭とロープでつながれている． 各ロープは，風船と杭をつなぐのに十分な長さがある．
1194	太陽の光がさえぎられている最後の瞬間の時刻を計算するプログラムを書け．太陽の全体が，シルエットおよび地平線以下の領域(y ≤ 0)の和集合に含まれていれば，太陽の光はさえぎられている．太陽はx-y平面上を 毎秒 (0, 1) の等速直線運動を しているものとする．
1593	半径1の円に内接する正N/K角形の面積を求めよ。ただし、正N/K角形を 「円周上に等間隔にN個の点を取り、 K-1個おきにそれぞれの点を結んだ一番外側の図形」 と定義する。
1598	n回の操作をしたときの移動距離の総和を最小化せよ。まだ選ばれていない点の中から、赤色の点と青色の点を１つずつ選んで、2点の共通の目的地を設定し、その目的地に向かって2点をそれぞれまっすぐ移動させる。二次元平面上に2つの円、n個の赤色の点、n個の青色の点がある。
1606	凸多角形が与えられたとき， 一度だけ折り返してできる多角形の中で，最も複雑なものの周長を出力するプログラムを書け．紙を折るときには必ずある頂点が別の頂点に重なるように折らなければならない．図形の複雑さとは，頂点の個数が多いことであり， 頂点数が同じ場合には周長が長いことである．
1612	あなたの仕事は， 与えられた n 個の位置の中から選ばれた k 個の位置に置かれた k 個の連結する立方体が作る多面体のうち表面積が一番小さいものを探すことである．
2003	あなたの仕事は，A 駅，B 駅の位置，そして既存路線に関する情報が与えられたときに，新路線において最低限設けなければならない出入口の個数を求めるプログラムを作成することである．新路線が高架から地下に，あるいは地下から高架に移るところには出入口を設けなければならない．
2009	あなたの仕事は、(-100,-100)、(100,-100)、(100,100)、(-100,100) を頂点とする正方形領域が、与えられた n 本の直線によっていくつに分割されているかを調べるプログラムを書いて、Mr. Yamada を解雇の危機から救うことである。
2016	あなたの仕事は，プールの形状（頂点数が 3〜10 の凸多角形），地上および水中における監視員の単位距離あたりの移動時間，そして監視員と少女の初期位置が与えられたときに，監視員が少女のところに到着するまでにかかる最短の時間を求めるプログラムを書くことである．
2023	あなたの仕事は，弾丸の衝突がいつ，そして何回起こったのか計算するプログラムを書くことである．あなたを構成する多角形とガーディアンの発射する線分の共有点が初めて発生した時刻を弾丸の衝突時刻とする．フィールドとして二次元平面を考える．
2201	あなたの仕事は，与えられた二次元上の宝石の配置に対して，最大で何個の宝石を吸着することができるかを求めることである．金属と宝石の表面との距離を d ，宝石の磁力の強さを m としたとき，0 ≤ d ≤ mであれば宝石は金属に吸着される．逆に，金属の棒と宝石がその磁力よりも離れている場合は吸着できない．
2334	できるだけ建 設する道の長さの合計が短くなるようにしたい。さて、長さの最小値はいくつになるだろうか。通る道を交差させることはできない。必要ならば街Ａと街Ｂを直接道で結ばずに、いくつかのトタタ族の街を経由して街 Ａと街Ｂを間接的に結ぶことになるだろう。
2402	あなたの仕事は、星間移動距離の総和が最小になるような経路を求め、 その総和を出力するプログラムを書くことである。天の川は2次元座標上にあるものとする。五芒星の線分上はエネルギー無しで移動することができる。 一方、五芒星の間を移動する際には、その距離に比例したエネルギーが必要となる。
2442	N個の頂点からなる凸多角形が与えられる。各頂点の座標は反時計周りに(X1, Y1), (X2 ,Y2), (XN, YN)で表わされる。点Pを通るどのような直線で凸多角形を切断しても、切断後に得られる2つの凸多角形の面積が等しいような点Pの座標を求めよ。
2514	あなたの初期位置が与えられたとき、脱出点へ移動するための最短路の距離を求めよ。直線に対して線対称となる位置に、人の鏡像が映し出される。あなたのいる位置、およびあなたの鏡像の位置が、いずれかの建物内部に存在しなければならない。
2609	ビッグブリッジ伯爵に衝撃波が何回当たるかを求めるプログラムを書いてあげよう。点 (x,y) にイクタ君の最終兵器である衝撃波発射装置があり、ここから秒速 v メートルの衝撃波を全方向に出す。この衝撃波は t 秒間有効であり、部屋の壁面で反射する。
2616	あなたの仕事は、ヘリリンが中心を点 S から点 G まで移動させるまでに必要な、最小の回転行動の回数を求めることである。ヘリリンは以下の行動ができる。平行移動.ヘリリンを表す線分の中点を中心として、反時計周りにちょうど 180⁄r 度だけ回転する
2635	穴を通って全体が y < 0 をみたすように移動できるかどうか判定せよ．すなけ君は，n 個の頂点からなる折れ線の形をしている．すなけ君は，平行移動や回転をして連続的に移動することはできるが，変形(折れ線の長さや二つの線分のなす角度を変える) することはできない．
2641	弾にこめるべき必要な魔力の最小量を求めよう．赤いオブジェが配置されている座標から青いオブジェに弾を撃つことで青いオブジェを破壊しなければならない．弾が障害物に接触した際に自動的に魔力を消費し，弾が貫通する魔法が発動する．
2661	穴は2本の折れ線で、づいあ君は円で表すこととする。づいあ君の全身が x < 0 の領域にある状態から、2 本の折れ線の間を通り、 x > 1000 の領域にづいあ君の全身が出た状態に到達できるような最大の直径を求めてほしい。
2742	あなたの仕事は，最大で何人の有権者から見えるように演説することができるかを求めよ． 駅前は N 個の障害物と M 人の有権者が存在している二次元平面として与えられる． 各障害物は多角形であらわされる．有権者は平面上の点としてあらわされる．
2804	長さが1の正方形がN個、2次元平面上にある。これらN個の正方形を全て内包する、最小面積の長方形を求めよ。
2888	あなたの目標は，このゲームでの実績を解除するため，最小のコマンド入力回数でスタート地点からゴール地点に移動することである.移動は上下左右と斜め45°の8方向が可能で，いずれかの対応するコマンドを入力すると，指定した方向に自動で進み続ける．
3007	PCがスキルを発動することができるかを調べて欲しい。各防具には重さと防御力が設定されており、PCの装備している防具の重さの合計がA以上B以下であり、かつ防御力の合計もA以上B以下であるとき、そのPCはスキルを発動することができる。
3043	座標(0,0)を通る直線でドーナツを分割し、直線の片側の領域にあるドーナツの面積の総和がもう片側の領域にあるドーナツの面積の総和と等しくなっているようにしたいと考えています。そのような直線の傾きを一つ求めてください。
