0004	連立方程式ax+by=c,dx+ey=f,の解、x, y を出力するプログラムを作成して下さい。a, b, c, d, e, f はそれぞれ、 -1,000 以上 1,000 以下の実数とし、連立方程式の解が一意に存在するように与えられるものとします。
0009	6 桁以下の正の整数 n を入力し、n 以下の素数がいくつあるかを出力するプログラムを作成して下さい。ただし、素数とは 1 と自分自身でしか割り切れない正の整数のうち 1 をのぞいたものをいいます。
0323	観測点の位置と探査レーダが示す半径からなるいくつかの観測データが与えられたとき、海岸線から最大でどのくらいの距離まで調査する必要があるかを求めるプログラムを作成せよ。
0371	メトロノームの数と秒単位の間隔ti を入力とし、i 番目のメトロノームの音が鳴る間隔をある負でない整数di だけ増やすことで、全てのメトロノームの音が同時に鳴る周期を最も短くしたときの、di の合計の最小値を求めるプログラムを作成せよ。
0402	数列が与えられたとき、箱の中の紙に書かれた数を降順に並べたときの K 番目の数を計算するプログラムを作成せよ。Aの L 番目から R 番目の要素からなる数列に対し、ビットごとの排他的論理和を求める。その数をB とする。
0410	アカベコ２０のメンバー数と、それぞれのメンバーが公演に参加する周期が１日単位で与えられたとき、参加するメンバーの組み合わせが何通りあるかを数えるプログラムを作成せよ。
0590	カタログは N+1 行で，最初の行に部屋数が書かれていて， 続く N 行に，１行に１部屋ずつ面積が昇順に書かれている．部屋数は 100,000 以下， 面積は 2の31乗-1以下である．５つの入力データのうち３つまでは， 部屋数 1000 以下，面積 30000 以下である．
1076	彼女の1日の収入の期待値を計算するのがあなたの仕事だ。お酒をn 年より長く熟成させることは今の彼女には出来ない。 またm 個の整数が存在して、それらとその倍数の年数だけお酒を熟成させることも彼女には無理なのだ。
1095	それぞれの町の気温を変数としたN個の一次方程式からなるN元一次連立方程式を導くことができた。生クリームは運ぶたびに、移動元の町の気温と移動先の町の気温の絶対差だけ傷んでしまう。生クリームの傷みの和を最小化した値を一行で出力せよ。
1522	数週間後に元の姿に再生しているプラナリアの数の期待値を求めてください。一度の切断では、すべての断片を水平方向の長さが(断片の頭に近い部分):(断片の頭に遠い部分)=m:nになるように切断します。この動作をx回繰り返します。
1531	整数の集合A,Bについて,次の条件を満たす整数 xがいくつ存在するか答えよ。Ai mod x = 0 かつ x mod Bj = 0 がすべての i (1 ≤ i ≤ N), j (1 ≤ j ≤ M) について成り立つ。
1626	月額賃料の総額がポルト氏の予算と ちょうど一致 し， かつ， ポルト氏の要求を満たす縦方向に連続するフロアを見つけるプログラムを書いてほしい． フロアの月額賃料は階数に比例しており， n 階のフロアの賃料は, 1 階の賃料の n 倍である．
1628	浮動小数点数 a と繰り返し回数 n が与えられたときこの擬似コードを実行した後の浮動小数点数 s の各ビットを求めよ．この近似手法の欠点として，誤差がすぐ蓄積してしまうことがある． このことを確認するため，ある浮動小数点数を何度も加算する，
2267	N 個の整数の組 (xi, yi) が与えられる．全ての組に対して yi = f(xi) なる関数 f を制約の下で作ることを考える．また，式は以下の BNF で表現できるものとする:このような関数の式を出力するプログラムを作成せよ．
2275	区間 [A−B,A+B] に含まれる Fox Number の個数を出力して欲しい．整数 N は k(≥1) 個の素数 p1,…,pk と正整数 e1,…,ek で，p1<…<pk，e1≥…≥ek を満たすものによって N=p1e1×…×pkek と書けるとき，Fox Number であると呼ぶことにする．
2315	まず頭の中で 1 から N までの整数を一様な確率で K 個作り，その合計値の距離だけ今の位置から魔女の方向へジャンプする，ということを繰り返すのである．何度ジャンプした後に魔女に最初の攻撃を与えることができるだろうか．期待値を求めよ．
2411	少女は毎日作業をし，復旧度を 1 日につき 1 ずつ上げていく． 任意のまだ復旧していないサービス i は，復旧度が wi 以上になると自動的に復旧する． サービス i が復旧すると，復旧した次の日から xi 日間だけ作業がはかどり，復旧度の増加が加速する．
2550	各頂点に 1,2,…,N の番号を，どの2つの頂点も互いに異なる番号を持つように割り当てる．これらの中から一様な確率で無作為に割り当てるものとする．v に隣接するすべての頂点 w に対して v に割り当てられた番号が w より小さいとき v を黒く塗るということをする．
2839	上の条件を満たすような数列はいくつあるでしょうか？長さ n の等差数列である.数列の i 番目の要素を si と定める時、全ての si(1≤i≤n) が 0≤si≤m を満たす整数である.えびちゃんは数列が好きです。中でも等差数列が特に好きです。
2887	N と M が与えられた時，最適な戦略をとった場合に得られる得点の期待値を求めるのが今日のあなたの仕事である．このゲームでは N 個のサイコロを同時に振って，出た目の合計が得点となる.サイコロを振り直すことができるが，N 個のサイコロ全てを同時に振り直さなければならない．
2924	サンタが都にあるすべての家を訪ねることができるか判定せよ。はじめに区画 (S,T)に降り、この場所からスタートする。1 回の移動で東西南北に隣り合う区画に移動でき、街の外には移動できない。1 度訪ねた区画には、2 度と入らない。
2925	天真さんが人を救済する回数の合計を求めよ。区画 (i,j) にある家には Ai,j人の人が住んでいる。天真さんは、辺が南北または東西に平行または垂直な長方形のエリアを選び、その中に住んでいる人全員をひとりずつ救済する。すべての長方形でこの操作を行う。
2927	悪魔を助けるために、このような集合がいくつあるか計算せよ。N以下の異なる K.個の自然数からなる.どの 2 つの値の組を集合から選んでも、片方の数がもう片方の数で割り切れる
2935	高速なプログラムを作って異なる魔方陣の数を計算してあげましょう。1 から N で番号付けられた N 個のそーるじぇむがあるとき、以下の条件が成り立つ異なる魔方陣がいくつあるのか気になりました。どの 2 つのそーるじぇむ間も、高々 1 回しか接続されない。すべてのそーるじぇむの色が、赤色か黒色のいずれかになっている。任意のそーるじぇむに対して、自身の色と異なる色のそーるじぇむのうち、少なくとも 1 つと接続されている。
2961	クエリが Q 個与えられます。1 個のクエリにつき、 1 つの正の整数 N が与えられるので、次の 2 つの条件を満たす正の整数 M の個数を求めてください。2≤M≤N を満たす.M の約数のうち、M を除いたものの総積が M の 2 倍以上になる
2963	A, B が与えられるので、貪欲に支払った場合枚数が最小にならないような金額のうち、最小のものを出力せよ。貪欲に支払うのが最適になるために、硬貨の金額が満たすべき条件は何なのだろうか。
3018	整数nが与えられた時、nCm(異なるn個のものからm個を選ぶ組み合わせの数)が偶数となるような最小のmを出力せよ。
3027	非負整数xを2進数表記したときの各桁の和をf(x)とする。正整数Nが与えられるのでf(0),f(1),...,f(N)の中で最大のものを出力せよ。
3076	長さ N の数列 X={x1,x2,…,xN} が与えられるので、空の列を除く全ての部分列 X′ に対して f(X′) を求め、その総和を 998244353 で割ったあまりを出力せよ。
0005	正の整数 a,b を入力し、a と b の最大公約数と最小公倍数を出力するプログラムを作成して下さい。
0044	整数 n を入力したとき、n より小さい素数のうち最も大きいものと、n より大きい素数のうち最も小さいものを出力するプログラムを作成してください。
0053	p(i) を小さい方から i 番目の素数とします。n が与えられたとき、i=1 から n までの p(i) の和 ss=p(1)+p(2)+ .... +p(n)を出力するプログラムを作成してください。
0056	整数 n を入力し、n を 2 つの素数の和で表す組み合わせ数が何通りあるかを出力するプログラムを作成してください。4 以上の偶数は 2 つの素数の和で表すことができるということが知られています。
0142	10000 以下の奇数 n を入力とし、例題にあるような計算 (n で割ったあまりの 2 乗の差の頻度を求める)を実行し、その出現回数を出力するプログラムを作成してください。1 以上 n 未満の自然数 (1, 2,... , n - 1) を 2 乗したものを n で割ったあまりを計算した結果を並べると、同じ数になるものがあるため、互いに異なった数の個数は、(n - 1)/2 になります。
0150	入力された整数 n 以下の双子素数で大きさが最大のものを出力するプログラムを作成してください。素数の中でも「5 と 7」「11 と 13」のような差が 2 となる素数の組を双子素数と言います。双子素数を構成する素数のうち大きい素数をその双子素数の大きさと呼ぶことにします。
0197	２つの整数を入力とし、ユークリッドの互除法を用いて最大公約数を求め、その最大公約数と計算にかかったステップ数を出力するプログラムを作成してください。
0211	生徒の人数 n、各生徒のコースの 1 周の距離 d (km) 、各生徒の走る速さ v (km/時間)を入力とし、全員が小学校を同時にスタートしてから次に同時に小学校に位置するのは、各生徒がそれぞれ何周したときかを出力するプログラムを作成してください。
0222	 整数 n を入力とし、大きさが n 以下になるような四つ子素数のうち、最大となるものの大きさを出力するプログラムを作成してください。並んだ 4 つの素数の組を四つ子素数といいます。四つ子素数を構成する四つの素数のうち、最大の数をその四つ子素数の大きさと呼びます。
0264	素数と式が与えられたときに、その素数の有限体で式を計算する電卓プログラムを作成してください。 p の有限体の 0 以外のすべての要素が逆数をもつことは、フェルマーの小定理と呼ばれる有名な定理 ap−1 ≡ 1 (mod p) からわかります（ただし、p は素数、a と p は互いに素）。
0291	それでは、縦棒の数 N、各部品の情報、複数のVLAの式を入力とし、各式が表すVLAによって1から N までの番号の列がどのように変換されるかを出力するプログラムを作成しなさい。部品は同じ位置関係である縦棒が一致するように、左から順番に + 演算子で接続される。たとえば、上からA,B,C,D という順番で連結された部品の列は A+B+C+D という式で表記される。
0338	新たに開拓した土地の東西方向と南北方向の長さと、１区画当たりの整備費用が与えられたとき、すべての区画を整備したときにかかる、最小の整備費用を求めるプログラムを作成せよ。この土地の整備には、区画数に比例した費用がかかりますが、県としてはこの費用を最小にしたいと考えています。
0361	パネルの横方向と縦方向の枚数が与えられたとき、パネルの継ぎ目と電線の交点の数を求めるプログラムを作成せよ。この壁の左上隅から右下隅まで、まっすぐ電線を張ることになりました。電線は図のように、壁の隅を含めたパネルの継ぎ目と電線の交点で固定することにします。
0401	遊びの開始時にそれぞれの場に置かれる白石と黒石の数が与えられたとき、幸四郎くんと浮子さんが最適な行動をとったときの勝者を求めるプログラムを作成せよ白石を場から１つ取り除く。その場の白石の数を超えない個数だけ、黒石を１つ以上場から取り除く。黒石を１つ白石と交換する。このとき白石は石入れから持ってくる。石入れには十分な数の 白石が入っているものとする。
1020	そのようなことが起きる確率を求めるプログラムを書いてほしい。もしバッテリーが残っていなければ停止する。そうでなければ、東西南北のいずれかの方向を等確率で選び、その方向の隣の部屋に移動し、その部屋を掃除し、バッテリーを1ポイント消費する。ただし、もし進もうとする方向に部屋がなければ、移動せずにその部屋に留まる。また、博士の家には物置として使っている部屋が 1 室あり、その部屋へ入ろうとしたときも移動せずにその部屋に留まる。ロボットは移動しなかったときでも同じようにバッテリーを消費する。
1060	正の整数 L が与えられる。LCM(a, b) = L となるような正の整数 a, b (a ≤ b) の組み合わせはいくつあるだろうか？ここで LCM(a, b) は a と b の最小公倍数とする。
1141	そこで君の使命だが，与えられた正整数 a と d と n に対して，この等差数列に含まれる n 番目の素数を求めるプログラムを書くことにある．a と d が互いに素な正の整数ならば， a から始まり d ずつ増える等差数列には無限個の素数が含まれる．
1172	あなたの使命は，与えられた正整数 n に対して，n より大きく 2n 以下の素数を数えるプログラムを書くことである．n が正の整数ならば，n より大きく 2n 以下の素数が1個以上存在する．
1189	洞穴の総数と最初に入る洞穴の番号が与えられたときに，素数洞穴をできるだけ多く調査できる降下経路を見つけるプログラムを作ってください．洞穴には，中央のものに1番，そこから図D-1のように外向きに渦を巻くように番号を付けると，教典が隠されているのは図中丸で囲まれているような素数番目の洞穴に他ならない．
1534	3つの整数 n, m, k が与えられるのでn1%10  +  n1+m%10  +  n1+2m%10  + ... +  n1+(k-1)m%10を計算せよ。
1610	m 年以上の寿命の竹だけを使い，すべての区画に今年種をまくという条件で，m 年後以降できるだけ長い期間どこかの区画では花が咲くような種のまき方を考えることにした．
